{
    "usedVolumeStr": "3.23 GB",
    "remainingTimeStr": "12 days 9 hours",
    "hasOffers": true,
    "remainingSeconds": 1070751,
    "usedAt": 1605703651000,
    "validityPeriod": 2,
    "usedPercentage": 65,
    "title": "",
    "initialVolume": 5368709120,
    "initialVolumeStr": "5 GB",
    "passType": 103,
    "nextUpdate": 10800,
    "subscriptions": [
      "speedon",
      "roamLikeHome",
      "tns",
      "migtest"
    ],
    "usedVolume": 3469228032,
    "passStage": 1,
    "passName": "Your Telekom data plan"
  }